…
These frustrations makes me seriously thinking about migrating my blog to blogdown so that I could write blogs in R Markdown. However, for some reason, I kind of want to stick with WordPress and don’t want a major change. For example, I really like this Twenty Twelve theme…

Finally, I came across goodpress package from Maëlle Salmon, which allows me to post from R Markdown to WordPress and keep the WordPress theme as is. So here comes my first experience with goodpress, which is really fun and thanks to Maëlle’s help I finally work through the whole workflow.

Example

As mentioned above, the most important feature I need is if goodpress could post R code and outputs to WordPress and render them as I expect, so I first checked with my previous Tidytuesday case.

library(tidyverse)

firsts <- read_csv('https://raw.githubusercontent.com/rfordatascience/tidytuesday/master/data/2020/2020-06-09/firsts.csv')

firsts
#> # A tibble: 479 x 5
#>     year accomplishment              person                gender     category  
#>    <dbl> <chr>                       <chr>                 <chr>      <chr>     
#>  1  1738 First free African-America… Gracia Real de Santa… African-A… Social & …
#>  2  1760 First known African-Americ… Jupiter Hammon (poem… Female Af… Arts & En…
#>  3  1768 First known African-Americ… Wentworth Cheswell, … African-A… Social & …
#>  4  1773 First known African-Americ… Phillis Wheatley (Po… Female Af… Arts & En…
#>  5  1773 First separate African-Ame… Silver Bluff Baptist… African-A… Religion  
#>  6  1775 First African-American to … Prince Hall           African-A… Social & …
#>  7  1778 First African-American U.S… the 1st Rhode Island… African-A… Military  
#>  8  1783 First African-American to … James Derham, who di… African-A… Education…
#>  9  1785 First African-American ord… Rev. Lemuel Haynes. … African-A… Religion  
#> 10  1792 First major African-Americ… 3,000 Black Loyalist… African-A… Social & …
#> # … with 469 more rows
…
